\relax 
\providecommand\hyper@newdestlabel[2]{}
\providecommand\HyperFirstAtBeginDocument{\AtBeginDocument}
\HyperFirstAtBeginDocument{\ifx\hyper@anchor\@undefined
\global\let\oldcontentsline\contentsline
\gdef\contentsline#1#2#3#4{\oldcontentsline{#1}{#2}{#3}}
\global\let\oldnewlabel\newlabel
\gdef\newlabel#1#2{\newlabelxx{#1}#2}
\gdef\newlabelxx#1#2#3#4#5#6{\oldnewlabel{#1}{{#2}{#3}}}
\AtEndDocument{\ifx\hyper@anchor\@undefined
\let\contentsline\oldcontentsline
\let\newlabel\oldnewlabel
\fi}
\fi}
\global\let\hyper@last\relax 
\gdef\HyperFirstAtBeginDocument#1{#1}
\providecommand\HyField@AuxAddToFields[1]{}
\providecommand\HyField@AuxAddToCoFields[2]{}
\citation{Schroers:1995he}
\citation{Gladikowski:1995sc}
\select@language{english}
\@writefile{toc}{\select@language{english}}
\@writefile{lof}{\select@language{english}}
\@writefile{lot}{\select@language{english}}
\@writefile{toc}{\contentsline {section}{\numberline {1}Introduction}{1}{section.1}}
\@writefile{toc}{\contentsline {section}{\numberline {2}The model}{1}{section.2}}
\newlabel{lag}{{1}{1}{The model}{equation.3}{}}
\newlabel{gauge}{{2}{1}{The model}{equation.4}{}}
\citation{Gladikowski:1995sc}
\citation{Schroers:1995he}
\citation{Jaykka:2010bq}
\citation{GaugedMerons}
\citation{GaugedMerons}
\citation{GaugedMerons}
\citation{kudryavtsev1998skyrmions}
\citation{nitta2013matryoshka}
\newlabel{cond}{{3}{2}{The model}{equation.5}{}}
\newlabel{charge}{{4}{2}{The model}{equation.6}{}}
\@writefile{toc}{\contentsline {section}{\numberline {3}Analytical solutions for domain walls}{2}{section.7}}
\newlabel{genpot}{{5}{2}{Analytical solutions for domain walls}{equation.8}{}}
\@writefile{lof}{\contentsline {figure}{\numberline {1}{\ignorespaces Skyrmion on cylinder with $Q=1/3$ (top) and twice wrapped Skyrmion with $Q=2/3$ (bottom) and zero magnetic field\relax }}{3}{figure.caption.9}}
\providecommand*\caption@xref[2]{\@setref\relax\@undefined{#1}}
\newlabel{cylinder2}{{1}{3}{Skyrmion on cylinder with $Q=1/3$ (top) and twice wrapped Skyrmion with $Q=2/3$ (bottom) and zero magnetic field\relax }{figure.caption.9}{}}
\newlabel{endenscylinder}{{7}{3}{Analytical solutions for domain walls}{equation.11}{}}
\newlabel{thetaV}{{9}{3}{Analytical solutions for domain walls}{equation.13}{}}
\newlabel{solution}{{10}{3}{Analytical solutions for domain walls}{equation.14}{}}
\newlabel{ensym}{{14}{4}{Analytical solutions for domain walls}{equation.18}{}}
\@writefile{lof}{\contentsline {figure}{\numberline {2}{\ignorespaces Characteristics of $Q=1$ Skyrmion on cylinder with constant magnetic potential\relax }}{4}{figure.caption.19}}
\newlabel{cylinderc11}{{2}{4}{Characteristics of $Q=1$ Skyrmion on cylinder with constant magnetic potential\relax }{figure.caption.19}{}}
\newlabel{solutionkink}{{15}{4}{Analytical solutions for domain walls}{equation.20}{}}
\@writefile{lof}{\contentsline {figure}{\numberline {3}{\ignorespaces $\phi _3$ for Skyrmion on cylinder without magnetic field.\relax }}{5}{figure.caption.22}}
\newlabel{cylinderc111d}{{3}{5}{$\phi _3$ for Skyrmion on cylinder without magnetic field.\relax }{figure.caption.22}{}}
\@writefile{toc}{\contentsline {section}{\numberline {4}Initial guess}{5}{section.23}}
\newlabel{mult}{{19}{5}{Initial guess}{equation.26}{}}
\newlabel{syperpf}{{21}{5}{Initial guess}{equation.28}{}}
\newlabel{syperpa}{{22}{6}{Initial guess}{equation.29}{}}
\newlabel{guess}{{23}{6}{Initial guess}{equation.30}{}}
\@writefile{toc}{\contentsline {section}{\numberline {5}Asymptotic (modify for $c\not =0$)}{6}{section.31}}
\newlabel{Dasymp}{{29}{6}{Asymptotic (modify for $c\neq 0$)}{equation.37}{}}
\citation{piette1995multisolitons}
\newlabel{ELeqs}{{30}{7}{Asymptotic (modify for $c\neq 0$)}{equation.38}{}}
\newlabel{eqasymp}{{33}{7}{Asymptotic (modify for $c\neq 0$)}{equation.41}{}}
\newlabel{firstorder}{{35}{7}{Asymptotic (modify for $c\neq 0$)}{equation.43}{}}
\@writefile{toc}{\contentsline {section}{\numberline {6}Binding energy (modify for $c\not =0$)}{7}{section.44}}
\citation{piette1995multisolitons}
\newlabel{Uint}{{45}{8}{Binding energy (modify for $c\neq 0$)}{equation.54}{}}
\newlabel{deltaA}{{47}{9}{Binding energy (modify for $c\neq 0$)}{equation.56}{}}
\newlabel{U}{{49}{9}{Binding energy (modify for $c\neq 0$)}{equation.58}{}}
\@writefile{toc}{\contentsline {section}{\numberline {7}$c \not =0$ case}{9}{section.59}}
\@writefile{toc}{\contentsline {subsection}{\numberline {7.1}Asymptotic for $V = \frac  {m^2}{2} (\phi _3^2 - c^2)^2$}{9}{subsection.60}}
\@writefile{toc}{\contentsline {subsection}{\numberline {7.2}Two configurations far away from each other (in vicinity of $v$)}{10}{subsection.68}}
\@writefile{toc}{\contentsline {section}{\numberline {8}Magnetic field configurations}{10}{section.72}}
\@writefile{toc}{\contentsline {subsection}{\numberline {8.1}Poincare index interpretation as hidden limit topology}{10}{subsection.73}}
\newlabel{lagrlimit}{{61}{10}{Poincare index interpretation as hidden limit topology}{equation.75}{}}
\newlabel{curlimit}{{63}{10}{Poincare index interpretation as hidden limit topology}{equation.77}{}}
\newlabel{Jlimit}{{64}{11}{Poincare index interpretation as hidden limit topology}{equation.78}{}}
\newlabel{limitlimit}{{71}{11}{Poincare index interpretation as hidden limit topology}{equation.85}{}}
\citation{Gladikowski:1995sc}
\bibcite{piette1995multisolitons}{1}
\bibcite{kudryavtsev1998skyrmions}{2}
\bibcite{nitta2013matryoshka}{3}
\bibcite{Schroers:1995he}{4}
\@writefile{toc}{\contentsline {section}{\numberline {9}Ideas}{12}{section.88}}
\@writefile{toc}{\contentsline {section}{\numberline {10}To do}{12}{section.89}}
\@writefile{toc}{\contentsline {section}{\numberline {11}Plan}{12}{section.90}}
\@writefile{toc}{\contentsline {section}{\numberline {12}Conclusions}{12}{section.91}}
\bibcite{Gladikowski:1995sc}{5}
\bibcite{Jaykka:2010bq}{6}
\bibcite{GaugedMerons}{7}
